Film,Time
1739.6335004884402,480.0
1758.1014653207424,540.0
1787.362396613481,600.0
1807.029579941387,660.0
1832.9326994464343,720.0
1858.116287854119,780.0
1884.0194073591663,840.0
1907.044402474764,900.0
1923.5936177140995,960.0
1962.2084532725496,1020.0
1968.2045457505697,1080.0
1987.631885379355,1140.0
