Radius,Time
681.6155779876261,3600.0
684.0140149788342,3780.0
686.4124519700423,3960.0
688.5710452621296,4140.0
690.9694822533377,4320.0
692.888231846304,4500.0
695.0468251383913,4680.0
697.2054184304786,4860.0
698.8843243243243,5040.0
700.8030739172907,5220.0
702.4819798111364,5400.0
704.4007294041029,5580.0
706.0796352979485,5760.0
709.1945745685451,6052.0
719.2680099316191,7252.0
727.9023830999681,8452.0
735.3375377727132,9652.0
742.0531613480957,10852.0
748.049253826116,12052.0
753.5656589058946,13252.0
758.6023765874315,14452.0
763.3992505698476,15652.0
767.7164371540222,16852.0
771.793780039076,18052.0
775.6312792250088,19252.0
779.2289347118209,20452.0
783.0664338977539,21652.0
786.9039330836868,22852.0
790.0219011722572,24052.0
792.900025561707,25252.0
795.5383062520359,26452.0
798.4164306414855,27652.0
801.0547113318144,28852.0
803.4531483230224,30052.0
806.0914290133513,31252.0
808.2500223054386,32452.0
810.6484592966467,33652.0
812.807052588734,34852.0
814.9656458808213,36052.0
817.1242391729086,37252.0
819.042988765875,38452.0
820.9617383588414,39652.0
822.8804879518079,40852.0
824.7992375447743,42052.0
826.7179871377408,43252.0
828.3968930315865,44452.0
830.0757989254321,45652.0
831.7547048192778,46852.0
833.4336107131235,48052.0
835.112516606969,49252.0
836.551578801694,50452.0
838.2304846955396,51652.0
839.6695468902644,52852.0
841.1086090849892,54052.0
842.5476712797141,55252.0
843.986733474439,56452.0
845.4257956691638,57652.0
846.6250141647679,58852.0
848.0640763594927,60052.0
849.2632948550968,61252.0
850.4625133507008,62452.0
851.6617318463047,63652.0
852.8609503419088,64852.0
854.060168837513,66052.0
855.2593873331169,67252.0
856.4586058287209,68452.0
857.657824324325,69652.0
858.857042819929,70852.0
859.8164176164123,72052.0
861.0156361120163,73252.0
861.9750109084995,74452.0
862.9343857049828,75652.0
863.893760501466,76852.0
865.0929789970701,78052.0
866.0523537935533,79252.0
867.0117285900365,80452.0
867.9711033865196,81652.0
872.0693578964517,83428.0
875.1873259850222,87028.0
877.8256066753511,90628.0
880.46388736568,94228.0
883.1021680560088,97828.0
885.500605047217,101428.0
887.899042038425,105028.0
890.5373227287539,108628.0
892.935759719962,112228.0
895.3341967111701,115828.0
897.2529463041366,119428.0
899.8912269944655,123028.0
902.0498202865526,126628.0
903.9685698795191,130228.0
905.8873194724856,133828.0
907.8060690654521,137428.0
909.7248186584186,141028.0
911.4037245522642,144628.0
913.0826304461099,148228.0
914.5216926408347,151828.0
916.2005985346804,155428.0
917.8795044285259,159028.0
919.3185666232508,162628.0
920.9974725170965,166228.0
922.4365347118213,169828.0
923.8755969065462,173428.0
925.5545028003919,177028.0
927.2334086942375,180628.0
928.6724708889624,184228.0
930.1115330836872,187828.0
931.5505952784121,191428.0
932.9896574731368,195028.0
934.6685633669825,198628.0
935.8677818625865,202228.0
937.3068440573114,205828.0
938.7459062520363,209428.0
939.9451247476403,213028.0
941.1443432432443,216628.0
942.3435617388484,220228.0
943.7826239335732,223828.0
944.9818424291773,227428.0
946.1810609247813,231028.0
947.3802794203854,234628.0
948.3396542168686,238228.0
949.5388727124725,241828.0
950.7380912080766,245428.0
951.6974660045598,249028.0
952.8966845001639,252628.0
953.8560592966471,256228.0
955.0552777922512,259828.0
956.0146525887344,263428.0
956.9740273852176,267028.0
958.1732458808217,270628.0
959.1326206773049,274228.0
960.331839172909,277828.0
961.531057668513,281428.0
962.730276164117,285028.0
963.9294946597211,288628.0
964.8888694562042,292228.0
965.8482442526874,295828.0
967.0474627482915,299428.0
968.0068375447747,303028.0
968.966212341258,306628.0
970.165430836862,310228.0
971.1248056333452,313828.0
972.3240241289493,317428.0
973.0435552263117,321028.0
973.7630863236741,324628.0
974.2427737219158,328228.0
975.202148518399,331828.0
