Radius,Time
667.2194985346792,225.0
689.5249625529143,285.0
708.9523021816997,345.0
725.7413611201563,405.0
740.3718267665256,465.0
753.3233865190491,525.0
764.8358840768478,585.0
777.0679127320091,645.0
786.6616606968414,705.0
795.2960338651905,765.0
803.9304070335395,825.0
812.8046239010093,885.0
820.9593096711169,945.0
828.154620644741,1005.0
836.0694627157277,1065.0
841.8257114946271,1125.0
1038.3901174210393,4407.0
1057.0979259524624,5007.0
1074.3666722891603,5607.0
1092.1151060241002,6207.0
1105.0666657766237,6807.0
1118.9776003256306,7407.0
1130.969785281671,8007.0
1142.002595441228,8607.0
1152.076030804302,9207.0
1166.9463401497921,9807.0
1180.3775873005575,10407.0
1190.4510226636312,11007.0
1190.6988068381684,11326.0
1218.520675936182,13126.0
1241.5456710517794,14926.0
1260.2534795832025,16726.0
1281.3597251058336,18526.0
1306.7831572126393,20326.0
1334.0477678606346,21588.0
1387.7727564636955,28788.0
1435.2618088896154,35988.0
1475.555550341911,43188.0
1512.4914800065153,50388.0
1548.4680348746365,57588.0
1577.2492787691335,64788.0
1608.4289596548383,71988.0
1642.0070775317515,79188.0
1669.8289466297651,86388.0
1696.6914409312956,93588.0
1729.3101840117254,100788.0
1751.8554917290812,107988.0
1778.7179860306119,115188.0
1799.3445441550011,122388.0
1817.5726652881826,129588.0
1837.7195360143305,136788.0
1859.305468935203,143988.0
1875.614840475418,151188.0
1895.761711201566,158388.0
1914.9492071312304,165588.0
1932.6976408661703,172788.0
1951.4054493975932,179988.0
1966.7554461413247,187188.0
1990.260128655164,194388.0
2020.4804347443858,201588.0
2048.781991240641,208788.0
2065.091362780856,215988.0
2072.766361152722,223188.0
2088.1163578964533,230388.0
2102.9866672419435,237588.0
2120.2554135786418,244788.0
