Film,Time
940.7421686746987,285.0
957.2913839140344,345.0
973.7206773038098,405.0
986.1925496580918,465.0
999.1441094106154,525.0
1010.896450667535,585.0
1023.7280885704981,645.0
1033.5616802344514,705.0
1130.8801563660063,1169.0
1146.3500749592984,1289.0
1158.8219473135805,1409.0
1167.336398632369,1529.0
1177.5297558450034,1649.0
1181.9668642787383,1769.0
1200.1949854119198,1889.0
1204.8719375447754,2009.0
1215.5449821556513,2129.0
1253.8696003581924,2290.0
1293.2039670140048,2890.0
1321.2656798111393,3490.0
1354.8437976880523,4090.0
1374.7508247150795,4690.0
1400.8937879192474,5290.0
1429.1953444155029,5890.0
1448.6226840442882,6490.0
1474.5258035493353,7090.0
1495.152361673725,7690.0
1522.2284462715766,8391.0
1562.762031422993,9591.0
1604.974522468255,10791.0
1626.320611690007,11991.0
1650.3049816020875,13191.0
1674.76903891241,14391.0
1698.9932525236115,15591.0
1769.777881178769,16362.0
1891.6184803321391,19962.0
1927.59503520026,23562.0
1972.2059632367304,27162.0
1977.0028372191466,30762.0
2018.7356408661672,34362.0
2018.7356408661672,37962.0
2056.6309453272547,41562.0
2092.127812797134,45162.0
2108.437184337349,48762.0
2107.9574969391074,52362.0
2132.9012416476717,55962.0
2168.8777965157924,59562.0
2171.2762335070006,63162.0
2226.4402843047865,66762.0
2227.3996591012697,70362.0
2247.0668424291757,73962.0
