Angle,Time
2.144265409067571,120.0
2.0809323461308598,180.0
2.018460964346055,240.0
1.9491253977733194,300.0
1.8908898372203917,360.0
1.836391655797429,420.0
1.5159588842978333,561.0
1.55254485296326,621.0
1.5085459803336632,681.0
1.450736251406585,741.0
1.0607793975063895,801.0
1.4657397342460539,861.0
1.159618696246922,921.0
1.4492957803102557,981.0
1.453449815342113,1041.0
1.449884017485451,1101.0
1.3860041714464058,1161.0
1.1113884625145067,1221.0
1.1693160601411468,1281.0
1.3507121607930563,1341.0
1.3380679765031664,1401.0
1.3047742312232182,1461.0
1.3141462576332321,1521.0
1.328370441687847,1581.0
1.3057421301570937,1641.0
0.0,1978.0
0.0,2278.0
0.0,2578.0
0.8877870624448077,2878.0
1.0147893253880553,3178.0
1.0528753103088737,3478.0
1.0388080287081933,3778.0
0.9771862410635864,4078.0
0.9136771736448196,4378.0
0.9461822731320626,4678.0
0.949181318977304,4978.0
0.9765919295816031,5278.0
0.9992400101756785,5578.0
0.9961192508536506,5878.0
0.9821420256946481,6178.0
0.9763722903271298,6478.0
0.9290731726232828,6778.0
0.9435416951472514,7078.0
0.9466007673242187,7378.0
0.9393431189771769,7678.0
0.9354620106741903,7978.0
0.9273564703127917,8278.0
0.8170848522734145,8578.0
0.7529962565204762,8878.0
0.7244910702827342,9178.0
0.7162056402334126,9339.0
0.6953757840052377,10239.0
0.7984904146760523,11139.0
0.7744475946778565,12039.0
0.7258590517658106,12939.0
0.7257656244637016,13839.0
0.7116850517427317,14739.0
0.6951487460652359,15639.0
0.41974231351381186,16539.0
0.7045113111653757,17439.0
0.6433609073035425,18339.0
0.6205674482061564,18484.0
0.5791502669592117,22084.0
0.5598122515111222,25684.0
0.4953818301718872,29284.0
0.47988743661495487,32884.0
0.4556160320439651,36484.0
0.4512878677598649,40084.0
0.4430087540250166,43684.0
0.42739423104926144,47284.0
0.41128732484008823,50884.0
0.40433958149741195,54484.0
0.3910200433888856,58084.0
0.3713095445294175,61684.0
0.3462648608717691,65284.0
0.33663003532283914,68884.0
0.32485806476698875,72484.0
