Angle,Time
1.8492388885534485,240.0
1.8008638023077077,300.0
1.7404698907167138,360.0
1.7065346391828846,420.0
1.6418492351238498,480.0
1.5841875815125286,540.0
1.5407238235792078,600.0
1.5033141434805875,660.0
1.4669087957345253,720.0
1.4504161410820147,780.0
1.4130274168739418,840.0
1.3808197141553071,900.0
1.3404027050561187,960.0
1.3162748092876224,1020.0
1.2980691131931616,1080.0
1.2775632280114653,1140.0
1.0969825820094439,1245.0
1.0585970802662892,1365.0
1.0352146476293047,1485.0
1.02796799432248,1605.0
1.0047706577720152,1725.0
0.9942466634643304,1845.0
0.9499395049422691,1965.0
0.9131481933220074,2085.0
0.813279152549292,2157.0
0.789889148585207,2757.0
0.7578931126067873,3357.0
0.7011856468272926,3957.0
0.6709983862715734,4557.0
0.6215640590148315,5157.0
0.6044072287567203,5757.0
0.5909299337474051,6357.0
0.5751552915245006,6957.0
0.5518674069375445,7557.0
0.5352942994867013,8157.0
